<?xml version="1.0" encoding="UTF-8" standalone="no"?>
<!DOCTYPE svg PUBLIC "-//W3C//DTD SVG 1.1//EN"
 "http://www.w3.org/Graphics/SVG/1.1/DTD/svg11.dtd">
<!-- Generated by graphviz version 2.38.0 (20140413.2041)
 -->
<!-- Title: G Pages: 1 -->
<svg width="176pt" height="190pt"
 viewBox="0.00 0.00 175.53 190.00" xmlns="http://www.w3.org/2000/svg" xmlns:xlink="http://www.w3.org/1999/xlink">
<g id="graph0" class="graph" transform="scale(1 1) rotate(0) translate(4 186)">
<title>G</title>
<polygon fill="white" stroke="none" points="-4,4 -4,-186 171.526,-186 171.526,4 -4,4"/>
<!-- ST_0 -->
<g id="node1" class="node"><title>ST_0</title>
<ellipse fill="none" stroke="black" cx="67.2705" cy="-164" rx="29.0429" ry="18"/>
<text text-anchor="middle" x="67.2705" y="-159.8" font-family="Times,serif" font-size="14.00">ST_0</text>
</g>
<!-- ST_0&#45;&gt;ST_0 -->
<g id="edge1" class="edge"><title>ST_0&#45;&gt;ST_0</title>
<path fill="none" stroke="black" d="M94.4733,-170.709C105.384,-171.088 114.541,-168.852 114.541,-164 114.541,-160.816 110.597,-158.759 104.802,-157.827"/>
<polygon fill="black" stroke="black" points="104.641,-154.314 94.4733,-157.291 104.278,-161.305 104.641,-154.314"/>
<text text-anchor="middle" x="141.034" y="-159.8" font-family="Times,serif" font-size="14.00"> ready=0 </text>
</g>
<!-- ST_1 -->
<g id="node2" class="node"><title>ST_1</title>
<ellipse fill="none" stroke="black" cx="67.2705" cy="-91" rx="29.0429" ry="18"/>
<text text-anchor="middle" x="67.2705" y="-86.8" font-family="Times,serif" font-size="14.00">ST_1</text>
</g>
<!-- ST_0&#45;&gt;ST_1 -->
<g id="edge2" class="edge"><title>ST_0&#45;&gt;ST_1</title>
<path fill="none" stroke="black" d="M67.2705,-145.813C67.2705,-137.789 67.2705,-128.047 67.2705,-119.069"/>
<polygon fill="black" stroke="black" points="70.7706,-119.029 67.2705,-109.029 63.7706,-119.029 70.7706,-119.029"/>
</g>
<!-- ST_2 -->
<g id="node3" class="node"><title>ST_2</title>
<ellipse fill="none" stroke="black" cx="29.2705" cy="-18" rx="29.0429" ry="18"/>
<text text-anchor="middle" x="29.2705" y="-13.8" font-family="Times,serif" font-size="14.00">ST_2</text>
</g>
<!-- ST_1&#45;&gt;ST_2 -->
<g id="edge3" class="edge"><title>ST_1&#45;&gt;ST_2</title>
<path fill="none" stroke="black" d="M58.4571,-73.5327C53.8049,-64.8404 47.9958,-53.9868 42.7879,-44.2561"/>
<polygon fill="black" stroke="black" points="45.8409,-42.5431 38.0362,-35.378 39.6692,-45.8462 45.8409,-42.5431"/>
</g>
<!-- ST_8 -->
<g id="node4" class="node"><title>ST_8</title>
<ellipse fill="none" stroke="black" cx="106.271" cy="-18" rx="29.0429" ry="18"/>
<text text-anchor="middle" x="106.271" y="-13.8" font-family="Times,serif" font-size="14.00">ST_8</text>
</g>
<!-- ST_1&#45;&gt;ST_8 -->
<g id="edge4" class="edge"><title>ST_1&#45;&gt;ST_8</title>
<path fill="none" stroke="black" d="M76.316,-73.5327C81.0906,-64.8404 87.0525,-53.9868 92.3975,-44.2561"/>
<polygon fill="black" stroke="black" points="95.5274,-45.8278 97.2742,-35.378 89.392,-42.4577 95.5274,-45.8278"/>
</g>
</g>
</svg>
