$date
     Oct 07, 2016       23:50:14
$end

$version
              SystemC 2.3.0-ASI --- Sep 24 2016 12:42:05
$end

$timescale
     1 ps
$end

$scope module SystemC $end
$var wire    1  aaa  mode       $end
$var wire    1  aab  ready       $end
$var wire    1  aac  clock       $end
$var wire   32  aad  xtea.Delta_mio [31:0]  $end
$var wire   32  aae  xtea.V0 [31:0]  $end
$var wire   32  aaf  xtea.V1 [31:0]  $end
$var wire   32  aag  xtea.k0 [31:0]  $end
$var wire   32  aah  xtea.k1 [31:0]  $end
$var wire   32  aai  xtea.k2 [31:0]  $end
$var wire   32  aaj  xtea.k3 [31:0]  $end
$var wire    1  aak  xtea.clk       $end
$var wire    1  aal  xtea.done       $end
$var wire    1  aam  xtea.mode       $end
$var wire   32  aan  xtea.word1 [31:0]  $end
$var wire   32  aao  xtea.word0 [31:0]  $end
$var wire    1  aap  testbench.clock       $end
$upscope $end
$enddefinitions  $end

$comment
All initial values are dumped below at time 0 sec = 0 timescale units.
$end

$dumpvars
0aaa
1aab
1aac
b0 aad
b0 aae
b0 aaf
b0 aag
b0 aah
b0 aai
b0 aaj
1aak
0aal
0aam
b10011010101111001101111011111111 aan
b10010001101000101011001111000 aao
1aap
$end

#500
0aac
0aak
0aap

#1000
1aac
1aak
1aap

#1500
0aac
0aak
0aap

#2000
1aac
b10010001101000101011001111000 aae
b10011010101111001101111011111111 aaf
b1101010000111010111100011001000 aag
b10001100100001101101011001111111 aah
b101010011001011011111110111110 aai
b10110100101111010110111001000110 aaj
1aak
1aap

#2500
0aac
0aak
0aap

#3000
1aac
b10011110001101110111100110111001 aad
1aak
1aap

#3500
0aac
0aak
0aap

#4000
1aac
1aak
1aap

#4500
0aac
0aak
0aap

#5000
1aac
b110101111111011110011101000110 aae
1aak
1aap

#5500
0aac
0aak
0aap

#6000
1aac
1aak
1aap

#6500
0aac
0aak
0aap

#7000
1aac
1aak
1aap

#7500
0aac
0aak
0aap

#8000
1aac
b1100001010110000100010001011110 aaf
1aak
1aap

#8500
0aac
0aak
0aap

#9000
1aac
1aak
1aap

#9500
0aac
0aak
0aap

#10000
1aac
b10010011010101101000001101011110 aae
1aak
1aap

#10500
0aac
0aak
0aap

#11000
1aac
1aak
1aap

#11500
0aac
0aak
0aap

#12000
1aac
1aak
1aap

#12500
0aac
0aak
0aap

#13000
1aac
b100111101011111101011000110 aaf
1aak
1aap

#13500
0aac
0aak
0aap

#14000
1aac
1aak
1aap

#14500
0aac
0aak
0aap

#15000
1aac
b11000110000011111101000010101010 aae
1aak
1aap

#15500
0aac
0aak
0aap

#16000
1aac
1aak
1aap

#16500
0aac
0aak
0aap

#17000
1aac
1aak
1aap

#17500
0aac
0aak
0aap

#18000
1aac
b1010000111001100000001000101011 aaf
1aak
1aap

#18500
0aac
0aak
0aap

#19000
1aac
1aak
1aap

#19500
0aac
0aak
0aap

#20000
1aac
b10011000101111101010000001100111 aae
1aak
1aap

#20500
0aac
0aak
0aap

#21000
1aac
1aak
1aap

#21500
0aac
0aak
0aap

#22000
1aac
1aak
1aap

#22500
0aac
0aak
0aap

#23000
1aac
b10101111110111100111010100001 aaf
1aak
1aap

#23500
0aac
0aak
0aap

#24000
1aac
1aak
1aap

#24500
0aac
0aak
0aap

#25000
1aac
b110000101100101111110100010001 aae
1aak
1aap

#25500
0aac
0aak
0aap

#26000
1aac
1aak
1aap

#26500
0aac
0aak
0aap

#27000
1aac
1aak
1aap

#27500
0aac
0aak
0aap

#28000
1aac
b11010000011010110110110000001101 aaf
1aak
1aap

#28500
0aac
0aak
0aap

#29000
1aac
1aak
1aap

#29500
0aac
0aak
0aap

#30000
1aac
b10100011111100000010110110110010 aae
1aak
1aap

#30500
0aac
0aak
0aap

#31000
1aac
1aak
1aap

#31500
0aac
0aak
0aap

#32000
1aac
1aak
1aap

#32500
0aac
0aak
0aap

#33000
1aac
b10000100011100110011101101110000 aaf
1aak
1aap

#33500
0aac
0aak
0aap

#34000
1aac
1aak
1aap

#34500
0aac
0aak
0aap

#35000
1aac
b10111100001000100001111000010001 aae
1aak
1aap

#35500
0aac
0aak
0aap

#36000
1aac
1aak
1aap

#36500
0aac
0aak
0aap

#37000
1aac
1aak
1aap

#37500
0aac
0aak
0aap

#38000
1aac
b10000010011111000101011110101100 aaf
1aak
1aap

#38500
0aac
0aak
0aap

#39000
1aac
1aak
1aap

#39500
0aac
0aak
0aap

#40000
1aac
b1101010001101010101000010001101 aae
1aak
1aap

#40500
0aac
0aak
0aap

#41000
1aac
1aak
1aap

#41500
0aac
0aak
0aap

#42000
1aac
1aak
1aap

#42500
0aac
0aak
0aap

#43000
1aac
b11110110111101111010111001010010 aaf
1aak
1aap

#43500
0aac
0aak
0aap

#44000
1aac
1aak
1aap

#44500
0aac
0aak
0aap

#45000
1aac
b1101110010100011001000011000001 aae
1aak
1aap

#45500
0aac
0aak
0aap

#46000
1aac
1aak
1aap

#46500
0aac
0aak
0aap

#47000
1aac
1aak
1aap

#47500
0aac
0aak
0aap

#48000
1aac
b10100101101001010111111101110000 aaf
1aak
1aap

#48500
0aac
0aak
0aap

#49000
1aac
1aak
1aap

#49500
0aac
0aak
0aap

#50000
1aac
b10000111101010111101001100101100 aae
1aak
1aap

#50500
0aac
0aak
0aap

#51000
1aac
1aak
1aap

#51500
0aac
0aak
0aap

#52000
1aac
1aak
1aap

#52500
0aac
0aak
0aap

#53000
1aac
b1000100000010011000010011110111 aaf
1aak
1aap

#53500
0aac
0aak
0aap

#54000
1aac
1aak
1aap

#54500
0aac
0aak
0aap

#55000
1aac
b1100101111111001101101111100010 aae
1aak
1aap

#55500
0aac
0aak
0aap

#56000
1aac
1aak
1aap

#56500
0aac
0aak
0aap

#57000
1aac
1aak
1aap

#57500
0aac
0aak
0aap

#58000
1aac
b10000111110010100010001011001111 aaf
1aak
1aap

#58500
0aac
0aak
0aap

#59000
1aac
1aak
1aap

#59500
0aac
0aak
0aap

#60000
1aac
b11100111011101011110010101101110 aae
1aak
1aap

#60500
0aac
0aak
0aap

#61000
1aac
1aak
1aap

#61500
0aac
0aak
0aap

#62000
1aac
1aak
1aap

#62500
0aac
0aak
0aap

#63000
1aac
b1001010111011101100111000100010 aaf
1aak
1aap

#63500
0aac
0aak
0aap

#64000
1aac
1aak
1aap

#64500
0aac
0aak
0aap

#65000
1aac
b1010100100110011010001110101 aae
1aak
1aap

#65500
0aac
0aak
0aap

#66000
1aac
1aak
1aap

#66500
0aac
0aak
0aap

#67000
1aac
1aak
1aap

#67500
0aac
0aak
0aap

#68000
1aac
b1110001100100011110010110101110 aaf
1aak
1aap

#68500
0aac
0aak
0aap

#69000
1aac
1aak
1aap

#69500
0aac
0aak
0aap

#70000
1aac
b100100000011111111010000010100 aae
1aak
1aap

#70500
0aac
0aak
0aap

#71000
1aac
1aak
1aap

#71500
0aac
0aak
0aap

#72000
1aac
1aak
1aap

#72500
0aac
0aak
0aap

#73000
1aac
b11000111111100100011001000010111 aaf
1aak
1aap

#73500
0aac
0aak
0aap

#74000
1aac
1aak
1aap

#74500
0aac
0aak
0aap

#75000
1aac
b10110100011100000111100100111111 aae
1aak
1aap

#75500
0aac
0aak
0aap

#76000
1aac
1aak
1aap

#76500
0aac
0aak
0aap

#77000
1aac
1aak
1aap

#77500
0aac
0aak
0aap

#78000
1aac
b100000001110110100010111111110 aaf
1aak
1aap

#78500
0aac
0aak
0aap

#79000
1aac
1aak
1aap

#79500
0aac
0aak
0aap

#80000
1aac
b10001111011111011101010100001111 aae
1aak
1aap

#80500
0aac
0aak
0aap

#81000
1aac
1aak
1aap

#81500
0aac
0aak
0aap

#82000
1aac
1aak
1aap

#82500
0aac
0aak
0aap

#83000
1aac
b111011010011001110000010101111 aaf
1aak
1aap

#83500
0aac
0aak
0aap

#84000
1aac
1aak
1aap

#84500
0aac
0aak
0aap

#85000
1aac
b1001101011100100011000000001011 aae
1aak
1aap

#85500
0aac
0aak
0aap

#86000
1aac
1aak
1aap

#86500
0aac
0aak
0aap

#87000
1aac
1aak
1aap

#87500
0aac
0aak
0aap

#88000
1aac
b11001001111110101111010011101011 aaf
1aak
1aap

#88500
0aac
0aak
0aap

#89000
1aac
1aak
1aap

#89500
0aac
0aak
0aap

#90000
1aac
b10111011011000001001010111010101 aae
1aak
1aap

#90500
0aac
0aak
0aap

#91000
1aac
1aak
1aap

#91500
0aac
0aak
0aap

#92000
1aac
1aak
1aap

#92500
0aac
0aak
0aap

#93000
1aac
b10001101010110100111111100111101 aaf
1aak
1aap

#93500
0aac
0aak
0aap

#94000
1aac
1aak
1aap

#94500
0aac
0aak
0aap

#95000
1aac
b11010000110011000110011101111011 aae
1aak
1aap

#95500
0aac
0aak
0aap

#96000
1aac
1aak
1aap

#96500
0aac
0aak
0aap

#97000
1aac
1aak
1aap

#97500
0aac
0aak
0aap

#98000
1aac
b11111000000110010001001111001 aaf
1aak
1aap

#98500
0aac
0aak
0aap

#99000
1aac
1aak
1aap

#99500
0aac
0aak
0aap

#100000
1aac
b1001101111000100111111101111000 aae
1aak
1aap

#100500
0aac
0aak
0aap

#101000
1aac
1aak
1aap

#101500
0aac
0aak
0aap

#102000
1aac
1aak
1aap

#102500
0aac
0aak
0aap

#103000
1aac
b1011010111001011101101001000 aaf
1aak
1aap

#103500
0aac
0aak
0aap

#104000
1aac
1aak
1aap

#104500
0aac
0aak
0aap

#105000
1aac
b1010100011111110111011100010110 aae
1aak
1aap

#105500
0aac
0aak
0aap

#106000
1aac
1aak
1aap

#106500
0aac
0aak
0aap

#107000
1aac
1aak
1aap

#107500
0aac
0aak
0aap

#108000
1aac
b1000001111110110010011011100101 aaf
1aak
1aap

#108500
0aac
0aak
0aap

#109000
1aac
1aak
1aap

#109500
0aac
0aak
0aap

#110000
1aac
b101101001010101000001111110110 aae
1aak
1aap

#110500
0aac
0aak
0aap

#111000
1aac
1aak
1aap

#111500
0aac
0aak
0aap

#112000
1aac
1aak
1aap

#112500
0aac
0aak
0aap

#113000
1aac
b101101111010000000110110110 aaf
1aak
1aap

#113500
0aac
0aak
0aap

#114000
1aac
1aak
1aap

#114500
0aac
0aak
0aap

#115000
1aac
b11001111101110110100010001111101 aae
1aak
1aap

#115500
0aac
0aak
0aap

#116000
1aac
1aak
1aap

#116500
0aac
0aak
0aap

#117000
1aac
1aak
1aap

#117500
0aac
0aak
0aap

#118000
1aac
b10011110000110010011000100100 aaf
1aak
1aap

#118500
0aac
0aak
0aap

#119000
1aac
1aak
1aap

#119500
0aac
0aak
0aap

#120000
1aac
b10001011100100100100000011101101 aae
1aak
1aap

#120500
0aac
0aak
0aap

#121000
1aac
1aak
1aap

#121500
0aac
0aak
0aap

#122000
1aac
1aak
1aap

#122500
0aac
0aak
0aap

#123000
1aac
b111100011101000000100000110111 aaf
1aak
1aap

#123500
0aac
0aak
0aap

#124000
1aac
1aak
1aap

#124500
0aac
0aak
0aap

#125000
1aac
b11000111110110100000101000110101 aae
1aak
1aap

#125500
0aac
0aak
0aap

#126000
1aac
1aak
1aap

#126500
0aac
0aak
0aap

#127000
1aac
1aak
1aap

#127500
0aac
0aak
0aap

#128000
1aac
b11011011011001000010111100100110 aaf
1aak
1aap

#128500
0aac
0aak
0aap

#129000
1aac
1aak
1aap

#129500
0aac
0aak
0aap

#130000
1aac
b111011111010011100010111100100 aae
1aak
1aap

#130500
0aac
0aak
0aap

#131000
1aac
1aak
1aap

#131500
0aac
0aak
0aap

#132000
1aac
1aak
1aap

#132500
0aac
0aak
0aap

#133000
1aac
b11000110101110100110001101001 aaf
1aak
1aap

#133500
0aac
0aak
0aap

#134000
1aac
1aak
1aap

#134500
0aac
0aak
0aap

#135000
1aac
b11010110011010111001101110111000 aae
1aak
1aap

#135500
0aac
0aak
0aap

#136000
1aac
1aak
1aap

#136500
0aac
0aak
0aap

#137000
1aac
1aak
1aap

#137500
0aac
0aak
0aap

#138000
1aac
b101001000000110000110111101 aaf
1aak
1aap

#138500
0aac
0aak
0aap

#139000
1aac
1aak
1aap

#139500
0aac
0aak
0aap

#140000
1aac
b1010010000111101101000001011 aae
1aak
1aap

#140500
0aac
0aak
0aap

#141000
1aac
1aak
1aap

#141500
0aac
0aak
0aap

#142000
1aac
1aak
1aap

#142500
0aac
0aak
0aap

#143000
1aac
b11011011111001001111100101001110 aaf
1aak
1aap

#143500
0aac
0aak
0aap

#144000
1aac
1aak
1aap

#144500
0aac
0aak
0aap

#145000
1aac
b110110100111110011111110000111 aae
1aak
1aap

#145500
0aac
0aak
0aap

#146000
1aac
1aak
1aap

#146500
0aac
0aak
0aap

#147000
1aac
1aak
1aap

#147500
0aac
0aak
0aap

#148000
1aac
b11000010000011101101101010110101 aaf
1aak
1aap

#148500
0aac
0aak
0aap

#149000
1aac
1aak
1aap

#149500
0aac
0aak
0aap

#150000
1aac
b11001000011000100101011111010101 aae
1aak
1aap

#150500
0aac
0aak
0aap

#151000
1aac
1aak
1aap

#151500
0aac
0aak
0aap

#152000
1aac
1aak
1aap

#152500
0aac
0aak
0aap

#153000
1aac
b1111110011001000101011001101010 aaf
1aak
1aap

#153500
0aac
0aak
0aap

#154000
1aac
1aak
1aap

#154500
0aac
0aak
0aap

#155000
1aac
b10011001010111101111000011100110 aae
1aak
1aap

#155500
0aac
0aak
0aap

#156000
1aac
1aak
1aap

#156500
0aac
0aak
0aap

#157000
1aac
1aak
1aap

#157500
0aac
0aak
0aap

#158000
1aac
b1110110010101100001011111001010 aaf
1aak
1aap

#158500
0aac
0aak
0aap

#159000
1aac
1aak
1aap

#159500
0aac
0aak
0aap

#160000
1aac
b10011001101110111011100100101011 aae
1aak
1aap

#160500
0aac
0aak
0aap

#161000
1aac
1aak
1aap

#161500
0aac
0aak
0aap

#162000
1aac
1aak
1aap

#162500
0aac
0aak
0aap

#163000
1aac
b111110101111010001011001000100 aaf
1aak
1aap

#163500
0aac
0aak
0aap

#164000
1aac
1aak
1aal
1aap

#164500
0aac
0aak
0aap

#165000
1aac
1aak
0aal
1aap

#165500
0aac
0aak
0aap

#166000
1aaa
1aac
1aak
1aam
b111110101111010001011001000100 aan
b10011001101110111011100100101011 aao
1aap

#166500
0aac
0aak
0aap

#167000
1aac
1aak
1aap

#167500
0aac
0aak
0aap

#168000
1aac
1aak
1aap

#168500
0aac
0aak
0aap

#169000
1aac
1aak
1aap

#169500
0aac
0aak
0aap

#170000
1aac
1aak
1aap

#170500
0aac
0aak
0aap

#171000
1aac
b1110110010101100001011111001010 aaf
1aak
1aap

#171500
0aac
0aak
0aap

#172000
1aac
1aak
1aap

#172500
0aac
0aak
0aap

#173000
1aac
1aak
1aap

#173500
0aac
0aak
0aap

#174000
1aac
b10011001010111101111000011100110 aae
1aak
1aap

#174500
0aac
0aak
0aap

#175000
1aac
1aak
1aap

#175500
0aac
0aak
0aap

#176000
1aac
b1111110011001000101011001101010 aaf
1aak
1aap

#176500
0aac
0aak
0aap

#177000
1aac
1aak
1aap

#177500
0aac
0aak
0aap

#178000
1aac
1aak
1aap

#178500
0aac
0aak
0aap

#179000
1aac
b11001000011000100101011111010101 aae
1aak
1aap

#179500
0aac
0aak
0aap

#180000
1aac
1aak
1aap

#180500
0aac
0aak
0aap

#181000
1aac
b11000010000011101101101010110101 aaf
1aak
1aap

#181500
0aac
0aak
0aap

#182000
1aac
1aak
1aap

#182500
0aac
0aak
0aap

#183000
1aac
1aak
1aap

#183500
0aac
0aak
0aap

#184000
1aac
b110110100111110011111110000111 aae
1aak
1aap

#184500
0aac
0aak
0aap

#185000
1aac
1aak
1aap

#185500
0aac
0aak
0aap

#186000
1aac
b11011011111001001111100101001110 aaf
1aak
1aap

#186500
0aac
0aak
0aap

#187000
1aac
1aak
1aap

#187500
0aac
0aak
0aap

#188000
1aac
1aak
1aap

#188500
0aac
0aak
0aap

#189000
1aac
b1010010000111101101000001011 aae
1aak
1aap

#189500
0aac
0aak
0aap

#190000
1aac
1aak
1aap

#190500
0aac
0aak
0aap

#191000
1aac
b101001000000110000110111101 aaf
1aak
1aap

#191500
0aac
0aak
0aap

#192000
1aac
1aak
1aap

#192500
0aac
0aak
0aap

#193000
1aac
1aak
1aap

#193500
0aac
0aak
0aap

#194000
1aac
b11010110011010111001101110111000 aae
1aak
1aap

#194500
0aac
0aak
0aap

#195000
1aac
1aak
1aap

#195500
0aac
0aak
0aap

#196000
1aac
b11000110101110100110001101001 aaf
1aak
1aap

#196500
0aac
0aak
0aap

#197000
1aac
1aak
1aap

#197500
0aac
0aak
0aap

#198000
1aac
1aak
1aap

#198500
0aac
0aak
0aap

#199000
1aac
b111011111010011100010111100100 aae
1aak
1aap

#199500
0aac
0aak
0aap

#200000
1aac
1aak
1aap

#200500
0aac
0aak
0aap

#201000
1aac
b11011011011001000010111100100110 aaf
1aak
1aap

#201500
0aac
0aak
0aap

#202000
1aac
1aak
1aap

#202500
0aac
0aak
0aap

#203000
1aac
1aak
1aap

#203500
0aac
0aak
0aap

#204000
1aac
b11000111110110100000101000110101 aae
1aak
1aap

#204500
0aac
0aak
0aap

#205000
1aac
1aak
1aap

#205500
0aac
0aak
0aap

#206000
1aac
b111100011101000000100000110111 aaf
1aak
1aap

#206500
0aac
0aak
0aap

#207000
1aac
1aak
1aap

#207500
0aac
0aak
0aap

#208000
1aac
1aak
1aap

#208500
0aac
0aak
0aap

#209000
1aac
b10001011100100100100000011101101 aae
1aak
1aap

#209500
0aac
0aak
0aap

#210000
1aac
1aak
1aap

#210500
0aac
0aak
0aap

#211000
1aac
b10011110000110010011000100100 aaf
1aak
1aap

#211500
0aac
0aak
0aap

#212000
1aac
1aak
1aap

#212500
0aac
0aak
0aap

#213000
1aac
1aak
1aap

#213500
0aac
0aak
0aap

#214000
1aac
b11001111101110110100010001111101 aae
1aak
1aap

#214500
0aac
0aak
0aap

#215000
1aac
1aak
1aap

#215500
0aac
0aak
0aap

#216000
1aac
b101101111010000000110110110 aaf
1aak
1aap

#216500
0aac
0aak
0aap

#217000
1aac
1aak
1aap

#217500
0aac
0aak
0aap

#218000
1aac
1aak
1aap

#218500
0aac
0aak
0aap

#219000
1aac
b101101001010101000001111110110 aae
1aak
1aap

#219500
0aac
0aak
0aap

#220000
1aac
1aak
1aap

#220500
0aac
0aak
0aap

#221000
1aac
b1000001111110110010011011100101 aaf
1aak
1aap

#221500
0aac
0aak
0aap

#222000
1aac
1aak
1aap

#222500
0aac
0aak
0aap

#223000
1aac
1aak
1aap

#223500
0aac
0aak
0aap

#224000
1aac
b1010100011111110111011100010110 aae
1aak
1aap

#224500
0aac
0aak
0aap

#225000
1aac
1aak
1aap

#225500
0aac
0aak
0aap

#226000
1aac
b1011010111001011101101001000 aaf
1aak
1aap

#226500
0aac
0aak
0aap

#227000
1aac
1aak
1aap

#227500
0aac
0aak
0aap

#228000
1aac
1aak
1aap

#228500
0aac
0aak
0aap

#229000
1aac
b1001101111000100111111101111000 aae
1aak
1aap

#229500
0aac
0aak
0aap

#230000
1aac
1aak
1aap

#230500
0aac
0aak
0aap

#231000
1aac
b11111000000110010001001111001 aaf
1aak
1aap

#231500
0aac
0aak
0aap

#232000
1aac
1aak
1aap

#232500
0aac
0aak
0aap

#233000
1aac
1aak
1aap

#233500
0aac
0aak
0aap

#234000
1aac
b11010000110011000110011101111011 aae
1aak
1aap

#234500
0aac
0aak
0aap

#235000
1aac
1aak
1aap

#235500
0aac
0aak
0aap

#236000
1aac
b10001101010110100111111100111101 aaf
1aak
1aap

#236500
0aac
0aak
0aap

#237000
1aac
1aak
1aap

#237500
0aac
0aak
0aap

#238000
1aac
1aak
1aap

#238500
0aac
0aak
0aap

#239000
1aac
b10111011011000001001010111010101 aae
1aak
1aap

#239500
0aac
0aak
0aap

#240000
1aac
1aak
1aap

#240500
0aac
0aak
0aap

#241000
1aac
b11001001111110101111010011101011 aaf
1aak
1aap

#241500
0aac
0aak
0aap

#242000
1aac
1aak
1aap

#242500
0aac
0aak
0aap

#243000
1aac
1aak
1aap

#243500
0aac
0aak
0aap

#244000
1aac
b1001101011100100011000000001011 aae
1aak
1aap

#244500
0aac
0aak
0aap

#245000
1aac
1aak
1aap

#245500
0aac
0aak
0aap

#246000
1aac
b111011010011001110000010101111 aaf
1aak
1aap

#246500
0aac
0aak
0aap

#247000
1aac
1aak
1aap

#247500
0aac
0aak
0aap

#248000
1aac
1aak
1aap

#248500
0aac
0aak
0aap

#249000
1aac
b10001111011111011101010100001111 aae
1aak
1aap

#249500
0aac
0aak
0aap

#250000
1aac
1aak
1aap

#250500
0aac
0aak
0aap

#251000
1aac
b100000001110110100010111111110 aaf
1aak
1aap

#251500
0aac
0aak
0aap

#252000
1aac
1aak
1aap

#252500
0aac
0aak
0aap

#253000
1aac
1aak
1aap

#253500
0aac
0aak
0aap

#254000
1aac
b10110100011100000111100100111111 aae
1aak
1aap

#254500
0aac
0aak
0aap

#255000
1aac
1aak
1aap

#255500
0aac
0aak
0aap

#256000
1aac
b11000111111100100011001000010111 aaf
1aak
1aap

#256500
0aac
0aak
0aap

#257000
1aac
1aak
1aap

#257500
0aac
0aak
0aap

#258000
1aac
1aak
1aap

#258500
0aac
0aak
0aap

#259000
1aac
b100100000011111111010000010100 aae
1aak
1aap

#259500
0aac
0aak
0aap

#260000
1aac
1aak
1aap

#260500
0aac
0aak
0aap

#261000
1aac
b1110001100100011110010110101110 aaf
1aak
1aap

#261500
0aac
0aak
0aap

#262000
1aac
1aak
1aap

#262500
0aac
0aak
0aap

#263000
1aac
1aak
1aap

#263500
0aac
0aak
0aap

#264000
1aac
b1010100100110011010001110101 aae
1aak
1aap

#264500
0aac
0aak
0aap

#265000
1aac
1aak
1aap

#265500
0aac
0aak
0aap

#266000
1aac
b1001010111011101100111000100010 aaf
1aak
1aap

#266500
0aac
0aak
0aap

#267000
1aac
1aak
1aap

#267500
0aac
0aak
0aap

#268000
1aac
1aak
1aap

#268500
0aac
0aak
0aap

#269000
1aac
b11100111011101011110010101101110 aae
1aak
1aap

#269500
0aac
0aak
0aap

#270000
1aac
1aak
1aap

#270500
0aac
0aak
0aap

#271000
1aac
b10000111110010100010001011001111 aaf
1aak
1aap

#271500
0aac
0aak
0aap

#272000
1aac
1aak
1aap

#272500
0aac
0aak
0aap

#273000
1aac
1aak
1aap

#273500
0aac
0aak
0aap

#274000
1aac
b1100101111111001101101111100010 aae
1aak
1aap

#274500
0aac
0aak
0aap

#275000
1aac
1aak
1aap

#275500
0aac
0aak
0aap

#276000
1aac
b1000100000010011000010011110111 aaf
1aak
1aap

#276500
0aac
0aak
0aap

#277000
1aac
1aak
1aap

#277500
0aac
0aak
0aap

#278000
1aac
1aak
1aap

#278500
0aac
0aak
0aap

#279000
1aac
b10000111101010111101001100101100 aae
1aak
1aap

#279500
0aac
0aak
0aap

#280000
1aac
1aak
1aap

#280500
0aac
0aak
0aap

#281000
1aac
b10100101101001010111111101110000 aaf
1aak
1aap

#281500
0aac
0aak
0aap

#282000
1aac
1aak
1aap

#282500
0aac
0aak
0aap

#283000
1aac
1aak
1aap

#283500
0aac
0aak
0aap

#284000
1aac
b1101110010100011001000011000001 aae
1aak
1aap

#284500
0aac
0aak
0aap

#285000
1aac
1aak
1aap

#285500
0aac
0aak
0aap

#286000
1aac
b11110110111101111010111001010010 aaf
1aak
1aap

#286500
0aac
0aak
0aap

#287000
1aac
1aak
1aap

#287500
0aac
0aak
0aap

#288000
1aac
1aak
1aap

#288500
0aac
0aak
0aap

#289000
1aac
b1101010001101010101000010001101 aae
1aak
1aap

#289500
0aac
0aak
0aap

#290000
1aac
1aak
1aap

#290500
0aac
0aak
0aap

#291000
1aac
b10000010011111000101011110101100 aaf
1aak
1aap

#291500
0aac
0aak
0aap

#292000
1aac
1aak
1aap

#292500
0aac
0aak
0aap

#293000
1aac
1aak
1aap

#293500
0aac
0aak
0aap

#294000
1aac
b10111100001000100001111000010001 aae
1aak
1aap

#294500
0aac
0aak
0aap

#295000
1aac
1aak
1aap

#295500
0aac
0aak
0aap

#296000
1aac
b10000100011100110011101101110000 aaf
1aak
1aap

#296500
0aac
0aak
0aap

#297000
1aac
1aak
1aap

#297500
0aac
0aak
0aap

#298000
1aac
1aak
1aap

#298500
0aac
0aak
0aap

#299000
1aac
b10100011111100000010110110110010 aae
1aak
1aap

#299500
0aac
0aak
0aap

#300000
1aac
1aak
1aap

#300500
0aac
0aak
0aap

#301000
1aac
b11010000011010110110110000001101 aaf
1aak
1aap

#301500
0aac
0aak
0aap

#302000
1aac
1aak
1aap

#302500
0aac
0aak
0aap

#303000
1aac
1aak
1aap

#303500
0aac
0aak
0aap

#304000
1aac
b110000101100101111110100010001 aae
1aak
1aap

#304500
0aac
0aak
0aap

#305000
1aac
1aak
1aap

#305500
0aac
0aak
0aap

#306000
1aac
b10101111110111100111010100001 aaf
1aak
1aap

#306500
0aac
0aak
0aap

#307000
1aac
1aak
1aap

#307500
0aac
0aak
0aap

#308000
1aac
1aak
1aap

#308500
0aac
0aak
0aap

#309000
1aac
b10011000101111101010000001100111 aae
1aak
1aap

#309500
0aac
0aak
0aap

#310000
1aac
1aak
1aap

#310500
0aac
0aak
0aap

#311000
1aac
b1010000111001100000001000101011 aaf
1aak
1aap

#311500
0aac
0aak
0aap

#312000
1aac
1aak
1aap

#312500
0aac
0aak
0aap

#313000
1aac
1aak
1aap

#313500
0aac
0aak
0aap

#314000
1aac
b11000110000011111101000010101010 aae
1aak
1aap

#314500
0aac
0aak
0aap

#315000
1aac
1aak
1aap

#315500
0aac
0aak
0aap

#316000
1aac
b100111101011111101011000110 aaf
1aak
1aap

#316500
0aac
0aak
0aap

#317000
1aac
1aak
1aap

#317500
0aac
0aak
0aap

#318000
1aac
1aak
1aap

#318500
0aac
0aak
0aap

#319000
1aac
b10010011010101101000001101011110 aae
1aak
1aap

#319500
0aac
0aak
0aap

#320000
1aac
1aak
1aap

#320500
0aac
0aak
0aap

#321000
1aac
b1100001010110000100010001011110 aaf
1aak
1aap

#321500
0aac
0aak
0aap

#322000
1aac
1aak
1aap

#322500
0aac
0aak
0aap

#323000
1aac
1aak
1aap

#323500
0aac
0aak
0aap

#324000
1aac
b110101111111011110011101000110 aae
1aak
1aap

#324500
0aac
0aak
0aap

#325000
1aac
1aak
1aap

#325500
0aac
0aak
0aap

#326000
1aac
b10011010101111001101111011111111 aaf
1aak
1aap

#326500
0aac
0aak
0aap

#327000
1aac
1aak
1aap

#327500
0aac
0aak
0aap

#328000
1aac
1aak
1aap

#328500
0aac
0aak
0aap

#329000
1aac
b10010001101000101011001111000 aae
1aak
1aap

#329500
0aac
0aak
0aap

#330000
1aac
1aak
1aal
1aap

#330500
0aac
0aak
0aap

#331000
1aac
1aak
0aal
1aap

